{"failedCount":0,"prefixedPath":"src\/test\/java\/FirstDemoTest.feature","packageQualifiedName":"src.test.java.FirstDemoTest","loopIndex":-1,"relativePath":"src\/test\/java\/FirstDemoTest.feature","scenarioResults":[{"sectionIndex":0,"stepResults":[{"result":{"nanos":92755400,"millis":92.7554,"status":"passed"},"step":{"line":3,"prefix":"Given","index":0,"text":"url 'https:\/\/reqres.in\/api\/users?page=2'"}},{"result":{"nanos":878542200,"millis":878.5422,"status":"passed"},"step":{"line":4,"prefix":"When","index":1,"text":"method GET"},"stepLog":"14:39:29.887 request:\n1 > GET https:\/\/reqres.in\/api\/users?page=2\n1 > Host: reqres.in\n1 > Connection: Keep-Alive\n1 > User-Agent: Apache-HttpClient\/4.5.14 (Java\/16.0.1)\n1 > Accept-Encoding: gzip,deflate\n\n\n14:39:30.391 response time in milliseconds: 498\n1 < 200\n1 < Date: Thu, 22 Dec 2022 08:39:28 GMT\n1 < Content-Type: application\/json; charset=utf-8\n1 < Transfer-Encoding: chunked\n1 < Connection: keep-alive\n1 < X-Powered-By: Express\n1 < Access-Control-Allow-Origin: *\n1 < Etag: W\/\"406-ut0vzoCuidvyMf8arZpMpJ6ZRDw\"\n1 < Via: 1.1 vegur\n1 < Cache-Control: max-age=14400\n1 < CF-Cache-Status: HIT\n1 < Age: 3475\n1 < Report-To: {\"endpoints\":[{\"url\":\"https:\\\/\\\/a.nel.cloudflare.com\\\/report\\\/v3?s=8gNQZF%2BXqRzGUqI0UStyfnxl08ziUJGQJC%2F%2Bhfq9PvAVqZerhbamHjDD3UBWllnAW42i9Buo3EfBA%2FfGZRE%2Fgd%2BejIYY3U4TvzXdA0lTT4BSjBO2UP44miUWyQ%3D%3D\"}],\"group\":\"cf-nel\",\"max_age\":604800}\n1 < NEL: {\"success_fraction\":0,\"report_to\":\"cf-nel\",\"max_age\":604800}\n1 < Vary: Accept-Encoding\n1 < Server: cloudflare\n1 < CF-RAY: 77d78c140b628811-SIN\n{\"page\":2,\"per_page\":6,\"total\":12,\"total_pages\":2,\"data\":[{\"id\":7,\"email\":\"michael.lawson@reqres.in\",\"first_name\":\"Michael\",\"last_name\":\"Lawson\",\"avatar\":\"https:\/\/reqres.in\/img\/faces\/7-image.jpg\"},{\"id\":8,\"email\":\"lindsay.ferguson@reqres.in\",\"first_name\":\"Lindsay\",\"last_name\":\"Ferguson\",\"avatar\":\"https:\/\/reqres.in\/img\/faces\/8-image.jpg\"},{\"id\":9,\"email\":\"tobias.funke@reqres.in\",\"first_name\":\"Tobias\",\"last_name\":\"Funke\",\"avatar\":\"https:\/\/reqres.in\/img\/faces\/9-image.jpg\"},{\"id\":10,\"email\":\"byron.fields@reqres.in\",\"first_name\":\"Byron\",\"last_name\":\"Fields\",\"avatar\":\"https:\/\/reqres.in\/img\/faces\/10-image.jpg\"},{\"id\":11,\"email\":\"george.edwards@reqres.in\",\"first_name\":\"George\",\"last_name\":\"Edwards\",\"avatar\":\"https:\/\/reqres.in\/img\/faces\/11-image.jpg\"},{\"id\":12,\"email\":\"rachel.howell@reqres.in\",\"first_name\":\"Rachel\",\"last_name\":\"Howell\",\"avatar\":\"https:\/\/reqres.in\/img\/faces\/12-image.jpg\"}],\"support\":{\"url\":\"https:\/\/reqres.in\/#support-heading\",\"text\":\"To keep ReqRes free, contributions towards server costs are appreciated!\"}}\n\n"},{"result":{"nanos":20500,"millis":0.0205,"status":"passed"},"step":{"line":5,"prefix":"Then","index":2,"text":"status 200"}},{"result":{"nanos":97122000,"millis":97.122,"status":"passed"},"step":{"line":6,"prefix":"And","index":3,"text":"print response"},"stepLog":"14:39:30.543 [print] {\n  \"page\": 2,\n  \"per_page\": 6,\n  \"total\": 12,\n  \"total_pages\": 2,\n  \"data\": [\n    {\n      \"id\": 7,\n      \"email\": \"michael.lawson@reqres.in\",\n      \"first_name\": \"Michael\",\n      \"last_name\": \"Lawson\",\n      \"avatar\": \"https:\/\/reqres.in\/img\/faces\/7-image.jpg\"\n    },\n    {\n      \"id\": 8,\n      \"email\": \"lindsay.ferguson@reqres.in\",\n      \"first_name\": \"Lindsay\",\n      \"last_name\": \"Ferguson\",\n      \"avatar\": \"https:\/\/reqres.in\/img\/faces\/8-image.jpg\"\n    },\n    {\n      \"id\": 9,\n      \"email\": \"tobias.funke@reqres.in\",\n      \"first_name\": \"Tobias\",\n      \"last_name\": \"Funke\",\n      \"avatar\": \"https:\/\/reqres.in\/img\/faces\/9-image.jpg\"\n    },\n    {\n      \"id\": 10,\n      \"email\": \"byron.fields@reqres.in\",\n      \"first_name\": \"Byron\",\n      \"last_name\": \"Fields\",\n      \"avatar\": \"https:\/\/reqres.in\/img\/faces\/10-image.jpg\"\n    },\n    {\n      \"id\": 11,\n      \"email\": \"george.edwards@reqres.in\",\n      \"first_name\": \"George\",\n      \"last_name\": \"Edwards\",\n      \"avatar\": \"https:\/\/reqres.in\/img\/faces\/11-image.jpg\"\n    },\n    {\n      \"id\": 12,\n      \"email\": \"rachel.howell@reqres.in\",\n      \"first_name\": \"Rachel\",\n      \"last_name\": \"Howell\",\n      \"avatar\": \"https:\/\/reqres.in\/img\/faces\/12-image.jpg\"\n    }\n  ],\n  \"support\": {\n    \"url\": \"https:\/\/reqres.in\/#support-heading\",\n    \"text\": \"To keep ReqRes free, contributions towards server costs are appreciated!\"\n  }\n}\n \n"},{"result":{"nanos":51379700,"millis":51.3797,"status":"passed"},"step":{"line":7,"prefix":"And","index":4,"text":"match response.data[0].first_name != null"}},{"result":{"nanos":9912500,"millis":9.9125,"status":"passed"},"step":{"line":8,"prefix":"And","index":5,"text":"assert response.data.length == 6"}},{"result":{"nanos":4775500,"millis":4.7755,"status":"passed"},"step":{"line":9,"prefix":"And","index":6,"text":"match $.data[1].id == 8"}},{"result":{"nanos":1138900,"millis":1.1389,"status":"passed"},"step":{"line":10,"prefix":"And","index":7,"text":"match $.data[3].last_name == 'Fields'"}}],"executorName":"main","line":2,"name":"Test a sample GET API","description":"","durationMillis":1135.6467,"startTime":1671698369461,"failed":false,"refId":"[1:2]","endTime":1671698370613,"exampleIndex":-1},{"sectionIndex":1,"stepResults":[{"result":{"nanos":2010600,"millis":2.0106,"status":"passed"},"step":{"line":14,"prefix":"Given","index":0,"text":"url 'https:\/\/reqres.in\/api\/users'"}},{"result":{"nanos":4804100,"millis":4.8041,"status":"passed"},"step":{"line":15,"prefix":"And","index":1,"text":"request { \"name\": \"Mehedi\", \"job\": \"QA Engineer\"}"}},{"result":{"nanos":680175000,"millis":680.175,"status":"passed"},"step":{"line":16,"prefix":"When","index":2,"text":"method post"},"stepLog":"14:39:30.707 request:\n1 > POST https:\/\/reqres.in\/api\/users\n1 > Content-Type: application\/json; charset=UTF-8\n1 > Content-Length: 37\n1 > Host: reqres.in\n1 > Connection: Keep-Alive\n1 > User-Agent: Apache-HttpClient\/4.5.14 (Java\/16.0.1)\n1 > Accept-Encoding: gzip,deflate\n{\"name\":\"Mehedi\",\"job\":\"QA Engineer\"}\n\n14:39:31.305 response time in milliseconds: 595\n1 < 201\n1 < Date: Thu, 22 Dec 2022 08:39:29 GMT\n1 < Content-Type: application\/json; charset=utf-8\n1 < Content-Length: 87\n1 < Connection: keep-alive\n1 < X-Powered-By: Express\n1 < Access-Control-Allow-Origin: *\n1 < Etag: W\/\"57-QNn30NfgFJYd+kKEG224K\/hcGd4\"\n1 < Via: 1.1 vegur\n1 < CF-Cache-Status: DYNAMIC\n1 < Report-To: {\"endpoints\":[{\"url\":\"https:\\\/\\\/a.nel.cloudflare.com\\\/report\\\/v3?s=MTcerZpkzJO2KWz%2BEco7mcknHdJ5cnJwYJ%2F9mlRxE%2F0aKiqg1y7Xo9vqJSbhyxdY6%2FkDK7giyU3%2BYC0VAdtwfN6viQ7ni0%2Fl4aQB%2Fomy5LYyLQ5G8ijApI%2B%2Bfg%3D%3D\"}],\"group\":\"cf-nel\",\"max_age\":604800}\n1 < NEL: {\"success_fraction\":0,\"report_to\":\"cf-nel\",\"max_age\":604800}\n1 < Server: cloudflare\n1 < CF-RAY: 77d78c17782b4a41-SIN\n{\"name\":\"Mehedi\",\"job\":\"QA Engineer\",\"id\":\"666\",\"createdAt\":\"2022-12-22T08:39:29.483Z\"}\n\n"},{"result":{"nanos":26600,"millis":0.0266,"status":"passed"},"step":{"line":17,"prefix":"Then","index":3,"text":"status 201"}},{"result":{"nanos":3214500,"millis":3.2145,"status":"passed"},"step":{"line":18,"prefix":"And","index":4,"text":"print response"},"stepLog":"14:39:31.310 [print] {\n  \"name\": \"Mehedi\",\n  \"job\": \"QA Engineer\",\n  \"id\": \"666\",\n  \"createdAt\": \"2022-12-22T08:39:29.483Z\"\n}\n \n"},{"result":{"nanos":2450900,"millis":2.4509,"status":"passed"},"step":{"line":19,"prefix":"And","index":5,"text":"match response == {\"name\": \"Mehedi\",\"job\": \"QA Engineer\",\"id\": \"#string\",\"createdAt\": \"#ignore\"}"}}],"executorName":"main","line":13,"name":"Test a sample POST API","description":"","durationMillis":692.6817,"startTime":1671698370618,"failed":false,"refId":"[2:13]","endTime":1671698371314,"exampleIndex":-1}],"callDepth":0,"name":"Sample API Test","description":"","resultDate":"2022-12-22 02:39:31 PM","durationMillis":1828.3284,"passedCount":2}