{"failedCount":0,"prefixedPath":"src\/test\/java\/FirstDemoTest.feature","packageQualifiedName":"src.test.java.FirstDemoTest","loopIndex":-1,"relativePath":"src\/test\/java\/FirstDemoTest.feature","scenarioResults":[{"sectionIndex":0,"stepResults":[{"result":{"nanos":90856200,"millis":90.8562,"status":"passed"},"step":{"line":3,"prefix":"Given","index":0,"text":"url 'https:\/\/reqres.in\/api\/users?page=2'"}},{"result":{"nanos":865135500,"millis":865.1355,"status":"passed"},"step":{"line":4,"prefix":"When","index":1,"text":"method GET"},"stepLog":"11:57:52.065 request:\n1 > GET https:\/\/reqres.in\/api\/users?page=2\n1 > Host: reqres.in\n1 > Connection: Keep-Alive\n1 > User-Agent: Apache-HttpClient\/4.5.14 (Java\/16.0.1)\n1 > Accept-Encoding: gzip,deflate\n\n\n11:57:52.589 response time in milliseconds: 516\n1 < 200\n1 < Date: Thu, 22 Dec 2022 05:57:51 GMT\n1 < Content-Type: application\/json; charset=utf-8\n1 < Transfer-Encoding: chunked\n1 < Connection: keep-alive\n1 < X-Powered-By: Express\n1 < Access-Control-Allow-Origin: *\n1 < Etag: W\/\"406-ut0vzoCuidvyMf8arZpMpJ6ZRDw\"\n1 < Via: 1.1 vegur\n1 < Cache-Control: max-age=14400\n1 < CF-Cache-Status: HIT\n1 < Age: 4669\n1 < Report-To: {\"endpoints\":[{\"url\":\"https:\\\/\\\/a.nel.cloudflare.com\\\/report\\\/v3?s=Zg5cDRxZgpgOBHj%2Fb4EB6%2FknpUudm3zqZiWrpG86Sg4lGTWSDKumBbsESWLegbsJnfzMKJ5eLVie3epCr22%2BHRih9ClvdeQia6rtJxRzaWl%2FWZUDuGds892lPg%3D%3D\"}],\"group\":\"cf-nel\",\"max_age\":604800}\n1 < NEL: {\"success_fraction\":0,\"report_to\":\"cf-nel\",\"max_age\":604800}\n1 < Vary: Accept-Encoding\n1 < Server: cloudflare\n1 < CF-RAY: 77d69f51dce14933-SIN\n{\"page\":2,\"per_page\":6,\"total\":12,\"total_pages\":2,\"data\":[{\"id\":7,\"email\":\"michael.lawson@reqres.in\",\"first_name\":\"Michael\",\"last_name\":\"Lawson\",\"avatar\":\"https:\/\/reqres.in\/img\/faces\/7-image.jpg\"},{\"id\":8,\"email\":\"lindsay.ferguson@reqres.in\",\"first_name\":\"Lindsay\",\"last_name\":\"Ferguson\",\"avatar\":\"https:\/\/reqres.in\/img\/faces\/8-image.jpg\"},{\"id\":9,\"email\":\"tobias.funke@reqres.in\",\"first_name\":\"Tobias\",\"last_name\":\"Funke\",\"avatar\":\"https:\/\/reqres.in\/img\/faces\/9-image.jpg\"},{\"id\":10,\"email\":\"byron.fields@reqres.in\",\"first_name\":\"Byron\",\"last_name\":\"Fields\",\"avatar\":\"https:\/\/reqres.in\/img\/faces\/10-image.jpg\"},{\"id\":11,\"email\":\"george.edwards@reqres.in\",\"first_name\":\"George\",\"last_name\":\"Edwards\",\"avatar\":\"https:\/\/reqres.in\/img\/faces\/11-image.jpg\"},{\"id\":12,\"email\":\"rachel.howell@reqres.in\",\"first_name\":\"Rachel\",\"last_name\":\"Howell\",\"avatar\":\"https:\/\/reqres.in\/img\/faces\/12-image.jpg\"}],\"support\":{\"url\":\"https:\/\/reqres.in\/#support-heading\",\"text\":\"To keep ReqRes free, contributions towards server costs are appreciated!\"}}\n\n"},{"result":{"nanos":23800,"millis":0.0238,"status":"passed"},"step":{"line":5,"prefix":"Then","index":2,"text":"status 200"}},{"result":{"nanos":109844100,"millis":109.8441,"status":"passed"},"step":{"line":6,"prefix":"And","index":3,"text":"print response"},"stepLog":"11:57:52.742 [print] {\n  \"page\": 2,\n  \"per_page\": 6,\n  \"total\": 12,\n  \"total_pages\": 2,\n  \"data\": [\n    {\n      \"id\": 7,\n      \"email\": \"michael.lawson@reqres.in\",\n      \"first_name\": \"Michael\",\n      \"last_name\": \"Lawson\",\n      \"avatar\": \"https:\/\/reqres.in\/img\/faces\/7-image.jpg\"\n    },\n    {\n      \"id\": 8,\n      \"email\": \"lindsay.ferguson@reqres.in\",\n      \"first_name\": \"Lindsay\",\n      \"last_name\": \"Ferguson\",\n      \"avatar\": \"https:\/\/reqres.in\/img\/faces\/8-image.jpg\"\n    },\n    {\n      \"id\": 9,\n      \"email\": \"tobias.funke@reqres.in\",\n      \"first_name\": \"Tobias\",\n      \"last_name\": \"Funke\",\n      \"avatar\": \"https:\/\/reqres.in\/img\/faces\/9-image.jpg\"\n    },\n    {\n      \"id\": 10,\n      \"email\": \"byron.fields@reqres.in\",\n      \"first_name\": \"Byron\",\n      \"last_name\": \"Fields\",\n      \"avatar\": \"https:\/\/reqres.in\/img\/faces\/10-image.jpg\"\n    },\n    {\n      \"id\": 11,\n      \"email\": \"george.edwards@reqres.in\",\n      \"first_name\": \"George\",\n      \"last_name\": \"Edwards\",\n      \"avatar\": \"https:\/\/reqres.in\/img\/faces\/11-image.jpg\"\n    },\n    {\n      \"id\": 12,\n      \"email\": \"rachel.howell@reqres.in\",\n      \"first_name\": \"Rachel\",\n      \"last_name\": \"Howell\",\n      \"avatar\": \"https:\/\/reqres.in\/img\/faces\/12-image.jpg\"\n    }\n  ],\n  \"support\": {\n    \"url\": \"https:\/\/reqres.in\/#support-heading\",\n    \"text\": \"To keep ReqRes free, contributions towards server costs are appreciated!\"\n  }\n}\n \n"},{"result":{"nanos":52001600,"millis":52.0016,"status":"passed"},"step":{"line":7,"prefix":"And","index":4,"text":"match response.data[0].first_name != null"}},{"result":{"nanos":10772100,"millis":10.7721,"status":"passed"},"step":{"line":8,"prefix":"And","index":5,"text":"assert response.data.length == 6"}},{"result":{"nanos":3420300,"millis":3.4203,"status":"passed"},"step":{"line":9,"prefix":"And","index":6,"text":"match $.data[1].id == 8"}},{"result":{"nanos":1143200,"millis":1.1432,"status":"passed"},"step":{"line":10,"prefix":"And","index":7,"text":"match $.data[3].last_name == 'Fields'"}}],"executorName":"main","line":2,"name":"Test a sample GET API","description":"","durationMillis":1133.1968,"startTime":1671688671658,"failed":false,"refId":"[1:2]","endTime":1671688672812,"exampleIndex":-1},{"sectionIndex":1,"stepResults":[{"result":{"nanos":487800,"millis":0.4878,"status":"passed"},"step":{"line":14,"prefix":"Given","index":0,"text":"url 'https:\/\/reqres.in\/api\/users'"}},{"result":{"nanos":1840600,"millis":1.8406,"status":"passed"},"step":{"line":15,"prefix":"And","index":1,"text":"request { \"name\": \"Mehedi\", \"job\": \"QA Engineer\"}"}},{"result":{"nanos":672584500,"millis":672.5845,"status":"passed"},"step":{"line":16,"prefix":"When","index":2,"text":"method post"},"stepLog":"11:57:52.877 request:\n1 > POST https:\/\/reqres.in\/api\/users\n1 > Content-Type: application\/json; charset=UTF-8\n1 > Content-Length: 37\n1 > Host: reqres.in\n1 > Connection: Keep-Alive\n1 > User-Agent: Apache-HttpClient\/4.5.14 (Java\/16.0.1)\n1 > Accept-Encoding: gzip,deflate\n{\"name\":\"Mehedi\",\"job\":\"QA Engineer\"}\n\n11:57:53.493 response time in milliseconds: 615\n1 < 201\n1 < Date: Thu, 22 Dec 2022 05:57:51 GMT\n1 < Content-Type: application\/json; charset=utf-8\n1 < Content-Length: 87\n1 < Connection: keep-alive\n1 < X-Powered-By: Express\n1 < Access-Control-Allow-Origin: *\n1 < Etag: W\/\"57-zWVE+kNjcYAygSLH26nzdLLNDsY\"\n1 < Via: 1.1 vegur\n1 < CF-Cache-Status: DYNAMIC\n1 < Report-To: {\"endpoints\":[{\"url\":\"https:\\\/\\\/a.nel.cloudflare.com\\\/report\\\/v3?s=UYzU%2FUE7a%2BTaXLWGDIkx3UPDg%2Btinl6K1Fbh3Ka8ziytQJHz7yzRJEtqOCY0a%2Ffj7MVKbU%2FwNhUtB6dDId1K6uYfNbNP761WvlNbz8UmtGmIJw7CLtCrloynTw%3D%3D\"}],\"group\":\"cf-nel\",\"max_age\":604800}\n1 < NEL: {\"success_fraction\":0,\"report_to\":\"cf-nel\",\"max_age\":604800}\n1 < Server: cloudflare\n1 < CF-RAY: 77d69f55490d8808-SIN\n{\"name\":\"Mehedi\",\"job\":\"QA Engineer\",\"id\":\"898\",\"createdAt\":\"2022-12-22T05:57:51.856Z\"}\n\n"},{"result":{"nanos":8900,"millis":0.0089,"status":"passed"},"step":{"line":17,"prefix":"Then","index":3,"text":"status 201"}},{"result":{"nanos":534500,"millis":0.5345,"status":"passed"},"step":{"line":18,"prefix":"And","index":4,"text":"print response"},"stepLog":"11:57:53.495 [print] {\n  \"name\": \"Mehedi\",\n  \"job\": \"QA Engineer\",\n  \"id\": \"898\",\n  \"createdAt\": \"2022-12-22T05:57:51.856Z\"\n}\n \n"}],"executorName":"main","line":13,"name":"Test a sample POST API","description":"","durationMillis":675.4563,"startTime":1671688672819,"failed":false,"refId":"[2:13]","endTime":1671688673495,"exampleIndex":-1}],"callDepth":0,"name":"Sample API Test","description":"","resultDate":"2022-12-22 11:57:53 AM","durationMillis":1808.6531,"passedCount":2}