{"failedCount":1,"prefixedPath":"src\/test\/java\/FirstDemoTest.feature","packageQualifiedName":"src.test.java.FirstDemoTest","loopIndex":-1,"relativePath":"src\/test\/java\/FirstDemoTest.feature","scenarioResults":[{"sectionIndex":0,"stepResults":[{"result":{"nanos":88795600,"millis":88.7956,"status":"passed"},"step":{"line":3,"prefix":"Given","index":0,"text":"url 'https:\/\/reqres.in\/api\/users?page=2'"}},{"result":{"nanos":765659900,"millis":765.6599,"status":"passed"},"step":{"line":4,"prefix":"When","index":1,"text":"method GET"},"stepLog":"14:42:16.355 request:\n1 > GET https:\/\/reqres.in\/api\/users?page=2\n1 > Host: reqres.in\n1 > Connection: Keep-Alive\n1 > User-Agent: Apache-HttpClient\/4.5.14 (Java\/16.0.1)\n1 > Accept-Encoding: gzip,deflate\n\n\n14:42:16.816 response time in milliseconds: 457\n1 < 200\n1 < Date: Thu, 22 Dec 2022 08:42:15 GMT\n1 < Content-Type: application\/json; charset=utf-8\n1 < Transfer-Encoding: chunked\n1 < Connection: keep-alive\n1 < X-Powered-By: Express\n1 < Access-Control-Allow-Origin: *\n1 < Etag: W\/\"406-ut0vzoCuidvyMf8arZpMpJ6ZRDw\"\n1 < Via: 1.1 vegur\n1 < Cache-Control: max-age=14400\n1 < CF-Cache-Status: HIT\n1 < Age: 2191\n1 < Report-To: {\"endpoints\":[{\"url\":\"https:\\\/\\\/a.nel.cloudflare.com\\\/report\\\/v3?s=kHAa1PCMCwgOWu65De%2FECJOQXAmen74VoXDwJK6evXYMw51jHAMx0jpQV0icQBnYLKG44yjncEy%2BYcI%2BH%2F9MCymbSmsERO0Fe174S91i7Mto8S6nLWSR3oKB%2Fg%3D%3D\"}],\"group\":\"cf-nel\",\"max_age\":604800}\n1 < NEL: {\"success_fraction\":0,\"report_to\":\"cf-nel\",\"max_age\":604800}\n1 < Vary: Accept-Encoding\n1 < Server: cloudflare\n1 < CF-RAY: 77d790243d8f9ff1-SIN\n{\"page\":2,\"per_page\":6,\"total\":12,\"total_pages\":2,\"data\":[{\"id\":7,\"email\":\"michael.lawson@reqres.in\",\"first_name\":\"Michael\",\"last_name\":\"Lawson\",\"avatar\":\"https:\/\/reqres.in\/img\/faces\/7-image.jpg\"},{\"id\":8,\"email\":\"lindsay.ferguson@reqres.in\",\"first_name\":\"Lindsay\",\"last_name\":\"Ferguson\",\"avatar\":\"https:\/\/reqres.in\/img\/faces\/8-image.jpg\"},{\"id\":9,\"email\":\"tobias.funke@reqres.in\",\"first_name\":\"Tobias\",\"last_name\":\"Funke\",\"avatar\":\"https:\/\/reqres.in\/img\/faces\/9-image.jpg\"},{\"id\":10,\"email\":\"byron.fields@reqres.in\",\"first_name\":\"Byron\",\"last_name\":\"Fields\",\"avatar\":\"https:\/\/reqres.in\/img\/faces\/10-image.jpg\"},{\"id\":11,\"email\":\"george.edwards@reqres.in\",\"first_name\":\"George\",\"last_name\":\"Edwards\",\"avatar\":\"https:\/\/reqres.in\/img\/faces\/11-image.jpg\"},{\"id\":12,\"email\":\"rachel.howell@reqres.in\",\"first_name\":\"Rachel\",\"last_name\":\"Howell\",\"avatar\":\"https:\/\/reqres.in\/img\/faces\/12-image.jpg\"}],\"support\":{\"url\":\"https:\/\/reqres.in\/#support-heading\",\"text\":\"To keep ReqRes free, contributions towards server costs are appreciated!\"}}\n\n"},{"result":{"nanos":20900,"millis":0.0209,"status":"passed"},"step":{"line":5,"prefix":"Then","index":2,"text":"status 200"}},{"result":{"nanos":105643200,"millis":105.6432,"status":"passed"},"step":{"line":6,"prefix":"And","index":3,"text":"print response"},"stepLog":"14:42:16.952 [print] {\n  \"page\": 2,\n  \"per_page\": 6,\n  \"total\": 12,\n  \"total_pages\": 2,\n  \"data\": [\n    {\n      \"id\": 7,\n      \"email\": \"michael.lawson@reqres.in\",\n      \"first_name\": \"Michael\",\n      \"last_name\": \"Lawson\",\n      \"avatar\": \"https:\/\/reqres.in\/img\/faces\/7-image.jpg\"\n    },\n    {\n      \"id\": 8,\n      \"email\": \"lindsay.ferguson@reqres.in\",\n      \"first_name\": \"Lindsay\",\n      \"last_name\": \"Ferguson\",\n      \"avatar\": \"https:\/\/reqres.in\/img\/faces\/8-image.jpg\"\n    },\n    {\n      \"id\": 9,\n      \"email\": \"tobias.funke@reqres.in\",\n      \"first_name\": \"Tobias\",\n      \"last_name\": \"Funke\",\n      \"avatar\": \"https:\/\/reqres.in\/img\/faces\/9-image.jpg\"\n    },\n    {\n      \"id\": 10,\n      \"email\": \"byron.fields@reqres.in\",\n      \"first_name\": \"Byron\",\n      \"last_name\": \"Fields\",\n      \"avatar\": \"https:\/\/reqres.in\/img\/faces\/10-image.jpg\"\n    },\n    {\n      \"id\": 11,\n      \"email\": \"george.edwards@reqres.in\",\n      \"first_name\": \"George\",\n      \"last_name\": \"Edwards\",\n      \"avatar\": \"https:\/\/reqres.in\/img\/faces\/11-image.jpg\"\n    },\n    {\n      \"id\": 12,\n      \"email\": \"rachel.howell@reqres.in\",\n      \"first_name\": \"Rachel\",\n      \"last_name\": \"Howell\",\n      \"avatar\": \"https:\/\/reqres.in\/img\/faces\/12-image.jpg\"\n    }\n  ],\n  \"support\": {\n    \"url\": \"https:\/\/reqres.in\/#support-heading\",\n    \"text\": \"To keep ReqRes free, contributions towards server costs are appreciated!\"\n  }\n}\n \n"},{"result":{"nanos":43743200,"millis":43.7432,"status":"passed"},"step":{"line":7,"prefix":"And","index":4,"text":"match response.data[0].first_name != null"}},{"result":{"nanos":7867900,"millis":7.8679,"status":"passed"},"step":{"line":8,"prefix":"And","index":5,"text":"assert response.data.length == 6"}},{"result":{"nanos":3748300,"millis":3.7483,"status":"passed"},"step":{"line":9,"prefix":"And","index":6,"text":"match $.data[1].id == 8"}},{"result":{"nanos":961500,"millis":0.9615,"status":"passed"},"step":{"line":10,"prefix":"And","index":7,"text":"match $.data[3].last_name == 'Fields'"}}],"executorName":"main","line":2,"name":"Test a sample GET API","description":"","durationMillis":1016.4405,"startTime":1671698535976,"failed":false,"refId":"[1:2]","endTime":1671698537011,"exampleIndex":-1},{"sectionIndex":1,"stepResults":[{"result":{"nanos":912700,"millis":0.9127,"status":"passed"},"step":{"line":14,"prefix":"Given","index":0,"text":"url 'https:\/\/reqres.in\/api\/users'"}},{"result":{"nanos":4174400,"millis":4.1744,"status":"passed"},"step":{"line":15,"prefix":"And","index":1,"text":"request { \"name\": \"Mehedi\", \"job\": \"QA Engineer\"}"}},{"result":{"nanos":669213000,"millis":669.213,"status":"passed"},"step":{"line":16,"prefix":"When","index":2,"text":"method post"},"stepLog":"14:42:17.107 request:\n1 > POST https:\/\/reqres.in\/api\/users\n1 > Content-Type: application\/json; charset=UTF-8\n1 > Content-Length: 37\n1 > Host: reqres.in\n1 > Connection: Keep-Alive\n1 > User-Agent: Apache-HttpClient\/4.5.14 (Java\/16.0.1)\n1 > Accept-Encoding: gzip,deflate\n{\"name\":\"Mehedi\",\"job\":\"QA Engineer\"}\n\n14:42:17.691 response time in milliseconds: 583\n1 < 201\n1 < Date: Thu, 22 Dec 2022 08:42:15 GMT\n1 < Content-Type: application\/json; charset=utf-8\n1 < Content-Length: 87\n1 < Connection: keep-alive\n1 < X-Powered-By: Express\n1 < Access-Control-Allow-Origin: *\n1 < Etag: W\/\"57-qW0uKJpYJfLbjIh2q92nIhu\/eCg\"\n1 < Via: 1.1 vegur\n1 < CF-Cache-Status: DYNAMIC\n1 < Report-To: {\"endpoints\":[{\"url\":\"https:\\\/\\\/a.nel.cloudflare.com\\\/report\\\/v3?s=AnoYgy2mHy%2FRumNLYyao44MDpYqF9zs0JTfIsY0Y8ae7ZuSLMpKoMlh9sI6M8CB1cF%2BNvFTWE54PZlEA4b1h5maklwrn5iWcdavesLR7739%2BaAIecbe721DKjA%3D%3D\"}],\"group\":\"cf-nel\",\"max_age\":604800}\n1 < NEL: {\"success_fraction\":0,\"report_to\":\"cf-nel\",\"max_age\":604800}\n1 < Server: cloudflare\n1 < CF-RAY: 77d790277bb59f85-SIN\n{\"name\":\"Mehedi\",\"job\":\"QA Engineer\",\"id\":\"342\",\"createdAt\":\"2022-12-22T08:42:15.879Z\"}\n\n"},{"result":{"nanos":9200,"millis":0.0092,"status":"passed"},"step":{"line":17,"prefix":"Then","index":3,"text":"status 201"}},{"result":{"nanos":463200,"millis":0.4632,"status":"passed"},"step":{"line":18,"prefix":"And","index":4,"text":"print response"},"stepLog":"14:42:17.692 [print] {\n  \"name\": \"Mehedi\",\n  \"job\": \"QA Engineer\",\n  \"id\": \"342\",\n  \"createdAt\": \"2022-12-22T08:42:15.879Z\"\n}\n \n"},{"result":{"nanos":898700,"millis":0.8987,"status":"passed"},"step":{"line":19,"prefix":"And","index":5,"text":"match response == {\"name\": \"Mehedi\",\"job\": \"QA Engineer\",\"id\": \"#string\",\"createdAt\": \"#ignore\"}"}},{"result":{"nanos":1781700,"errorMessage":"match failed: NOT_EQUALS\n  $ | actual path does not exist (STRING:NULL)\n  '#notpresent'\n  null\n\nsrc\/test\/java\/FirstDemoTest.feature:20","millis":1.7817,"status":"failed"},"step":{"line":20,"prefix":"And","index":6,"text":"match response.x.name != null"},"stepLog":"14:42:17.696 src\/test\/java\/FirstDemoTest.feature:20\nAnd match response.x.name != null\nmatch failed: NOT_EQUALS\n  $ | actual path does not exist (STRING:NULL)\n  '#notpresent'\n  null\n\nsrc\/test\/java\/FirstDemoTest.feature:20\n"}],"line":13,"description":"","durationMillis":677.4529,"failed":true,"error":"match failed: NOT_EQUALS\n  $ | actual path does not exist (STRING:NULL)\n  '#notpresent'\n  null\n\nsrc\/test\/java\/FirstDemoTest.feature:20","executorName":"main","name":"Test a sample POST API","startTime":1671698537016,"refId":"[2:13]","endTime":1671698537696,"exampleIndex":-1}],"callDepth":0,"name":"Sample API Test","description":"","resultDate":"2022-12-22 02:42:17 PM","durationMillis":1693.8934,"passedCount":1}