{"failedCount":0,"prefixedPath":"src\/test\/java\/FirstDemoTest.feature","packageQualifiedName":"src.test.java.FirstDemoTest","loopIndex":-1,"relativePath":"src\/test\/java\/FirstDemoTest.feature","scenarioResults":[{"sectionIndex":0,"stepResults":[{"result":{"nanos":95266600,"millis":95.2666,"status":"passed"},"step":{"line":3,"prefix":"Given","index":0,"text":"url 'https:\/\/reqres.in\/api\/users?page=2'"}},{"result":{"nanos":1071390800,"millis":1071.3908,"status":"passed"},"step":{"line":4,"prefix":"When","index":1,"text":"method GET"},"stepLog":"14:24:57.542 request:\n1 > GET https:\/\/reqres.in\/api\/users?page=2\n1 > Host: reqres.in\n1 > Connection: Keep-Alive\n1 > User-Agent: Apache-HttpClient\/4.5.14 (Java\/16.0.1)\n1 > Accept-Encoding: gzip,deflate\n\n\n14:24:58.119 response time in milliseconds: 572\n1 < 200\n1 < Date: Thu, 22 Dec 2022 08:24:56 GMT\n1 < Content-Type: application\/json; charset=utf-8\n1 < Transfer-Encoding: chunked\n1 < Connection: keep-alive\n1 < X-Powered-By: Express\n1 < Access-Control-Allow-Origin: *\n1 < Etag: W\/\"406-ut0vzoCuidvyMf8arZpMpJ6ZRDw\"\n1 < Via: 1.1 vegur\n1 < Cache-Control: max-age=14400\n1 < CF-Cache-Status: HIT\n1 < Age: 2603\n1 < Report-To: {\"endpoints\":[{\"url\":\"https:\\\/\\\/a.nel.cloudflare.com\\\/report\\\/v3?s=2q%2BJ%2BSWORNmqmJFbz4wPLPFjhdJJp1%2BpGQ8tm37lNuMuQ3SwosMFAuq8e%2Fxk2t%2Bu9kn%2Fm5TD3gfUUwSkbkR92W0cmLN4RvWPIOkZyroJSit8um0vcGzHYOpQgQ%3D%3D\"}],\"group\":\"cf-nel\",\"max_age\":604800}\n1 < NEL: {\"success_fraction\":0,\"report_to\":\"cf-nel\",\"max_age\":604800}\n1 < Vary: Accept-Encoding\n1 < Server: cloudflare\n1 < CF-RAY: 77d776c858846bcd-SIN\n{\"page\":2,\"per_page\":6,\"total\":12,\"total_pages\":2,\"data\":[{\"id\":7,\"email\":\"michael.lawson@reqres.in\",\"first_name\":\"Michael\",\"last_name\":\"Lawson\",\"avatar\":\"https:\/\/reqres.in\/img\/faces\/7-image.jpg\"},{\"id\":8,\"email\":\"lindsay.ferguson@reqres.in\",\"first_name\":\"Lindsay\",\"last_name\":\"Ferguson\",\"avatar\":\"https:\/\/reqres.in\/img\/faces\/8-image.jpg\"},{\"id\":9,\"email\":\"tobias.funke@reqres.in\",\"first_name\":\"Tobias\",\"last_name\":\"Funke\",\"avatar\":\"https:\/\/reqres.in\/img\/faces\/9-image.jpg\"},{\"id\":10,\"email\":\"byron.fields@reqres.in\",\"first_name\":\"Byron\",\"last_name\":\"Fields\",\"avatar\":\"https:\/\/reqres.in\/img\/faces\/10-image.jpg\"},{\"id\":11,\"email\":\"george.edwards@reqres.in\",\"first_name\":\"George\",\"last_name\":\"Edwards\",\"avatar\":\"https:\/\/reqres.in\/img\/faces\/11-image.jpg\"},{\"id\":12,\"email\":\"rachel.howell@reqres.in\",\"first_name\":\"Rachel\",\"last_name\":\"Howell\",\"avatar\":\"https:\/\/reqres.in\/img\/faces\/12-image.jpg\"}],\"support\":{\"url\":\"https:\/\/reqres.in\/#support-heading\",\"text\":\"To keep ReqRes free, contributions towards server costs are appreciated!\"}}\n\n"},{"result":{"nanos":19300,"millis":0.0193,"status":"passed"},"step":{"line":5,"prefix":"Then","index":2,"text":"status 200"}},{"result":{"nanos":128531000,"millis":128.531,"status":"passed"},"step":{"line":6,"prefix":"And","index":3,"text":"print response"},"stepLog":"14:24:58.287 [print] {\n  \"page\": 2,\n  \"per_page\": 6,\n  \"total\": 12,\n  \"total_pages\": 2,\n  \"data\": [\n    {\n      \"id\": 7,\n      \"email\": \"michael.lawson@reqres.in\",\n      \"first_name\": \"Michael\",\n      \"last_name\": \"Lawson\",\n      \"avatar\": \"https:\/\/reqres.in\/img\/faces\/7-image.jpg\"\n    },\n    {\n      \"id\": 8,\n      \"email\": \"lindsay.ferguson@reqres.in\",\n      \"first_name\": \"Lindsay\",\n      \"last_name\": \"Ferguson\",\n      \"avatar\": \"https:\/\/reqres.in\/img\/faces\/8-image.jpg\"\n    },\n    {\n      \"id\": 9,\n      \"email\": \"tobias.funke@reqres.in\",\n      \"first_name\": \"Tobias\",\n      \"last_name\": \"Funke\",\n      \"avatar\": \"https:\/\/reqres.in\/img\/faces\/9-image.jpg\"\n    },\n    {\n      \"id\": 10,\n      \"email\": \"byron.fields@reqres.in\",\n      \"first_name\": \"Byron\",\n      \"last_name\": \"Fields\",\n      \"avatar\": \"https:\/\/reqres.in\/img\/faces\/10-image.jpg\"\n    },\n    {\n      \"id\": 11,\n      \"email\": \"george.edwards@reqres.in\",\n      \"first_name\": \"George\",\n      \"last_name\": \"Edwards\",\n      \"avatar\": \"https:\/\/reqres.in\/img\/faces\/11-image.jpg\"\n    },\n    {\n      \"id\": 12,\n      \"email\": \"rachel.howell@reqres.in\",\n      \"first_name\": \"Rachel\",\n      \"last_name\": \"Howell\",\n      \"avatar\": \"https:\/\/reqres.in\/img\/faces\/12-image.jpg\"\n    }\n  ],\n  \"support\": {\n    \"url\": \"https:\/\/reqres.in\/#support-heading\",\n    \"text\": \"To keep ReqRes free, contributions towards server costs are appreciated!\"\n  }\n}\n \n"},{"result":{"nanos":49791100,"millis":49.7911,"status":"passed"},"step":{"line":7,"prefix":"And","index":4,"text":"match response.data[0].first_name != null"}},{"result":{"nanos":7831500,"millis":7.8315,"status":"passed"},"step":{"line":8,"prefix":"And","index":5,"text":"assert response.data.length == 6"}},{"result":{"nanos":3907300,"millis":3.9073,"status":"passed"},"step":{"line":9,"prefix":"And","index":6,"text":"match $.data[1].id == 8"}},{"result":{"nanos":985600,"millis":0.9856,"status":"passed"},"step":{"line":10,"prefix":"And","index":7,"text":"match $.data[3].last_name == 'Fields'"}}],"executorName":"main","line":2,"name":"Test a sample GET API","description":"","durationMillis":1357.7232,"startTime":1671697496976,"failed":false,"refId":"[1:2]","endTime":1671697498351,"exampleIndex":-1},{"sectionIndex":1,"stepResults":[{"result":{"nanos":831000,"millis":0.831,"status":"passed"},"step":{"line":14,"prefix":"Given","index":0,"text":"url 'https:\/\/reqres.in\/api\/users'"}},{"result":{"nanos":3022200,"millis":3.0222,"status":"passed"},"step":{"line":15,"prefix":"And","index":1,"text":"request { \"name\": \"Mehedi\", \"job\": \"QA Engineer\"}"}},{"result":{"nanos":715809600,"millis":715.8096,"status":"passed"},"step":{"line":16,"prefix":"When","index":2,"text":"method post"},"stepLog":"14:24:58.472 request:\n1 > POST https:\/\/reqres.in\/api\/users\n1 > Content-Type: application\/json; charset=UTF-8\n1 > Content-Length: 37\n1 > Host: reqres.in\n1 > Connection: Keep-Alive\n1 > User-Agent: Apache-HttpClient\/4.5.14 (Java\/16.0.1)\n1 > Accept-Encoding: gzip,deflate\n{\"name\":\"Mehedi\",\"job\":\"QA Engineer\"}\n\n14:24:59.077 response time in milliseconds: 604\n1 < 201\n1 < Date: Thu, 22 Dec 2022 08:24:57 GMT\n1 < Content-Type: application\/json; charset=utf-8\n1 < Content-Length: 87\n1 < Connection: keep-alive\n1 < X-Powered-By: Express\n1 < Access-Control-Allow-Origin: *\n1 < Etag: W\/\"57-oj72w906Y+36eleTGCIi\/etaXRo\"\n1 < Via: 1.1 vegur\n1 < CF-Cache-Status: DYNAMIC\n1 < Report-To: {\"endpoints\":[{\"url\":\"https:\\\/\\\/a.nel.cloudflare.com\\\/report\\\/v3?s=XreXT36Rn%2Bbcc8CmZGUG8%2BPZXnP80mh68rVNJMqOpVh614YViU7%2F7T1kPOXD3nqzcm81IXibxZUgYnThcdRwZOSQFT4Y24T2Wy86%2FwgfAfkInuCjU2IveR%2BbBA%3D%3D\"}],\"group\":\"cf-nel\",\"max_age\":604800}\n1 < NEL: {\"success_fraction\":0,\"report_to\":\"cf-nel\",\"max_age\":604800}\n1 < Server: cloudflare\n1 < CF-RAY: 77d776cc18359f80-SIN\n{\"name\":\"Mehedi\",\"job\":\"QA Engineer\",\"id\":\"456\",\"createdAt\":\"2022-12-22T08:24:57.265Z\"}\n\n"},{"result":{"nanos":8400,"millis":0.0084,"status":"passed"},"step":{"line":17,"prefix":"Then","index":3,"text":"status 201"}},{"result":{"nanos":877800,"millis":0.8778,"status":"passed"},"step":{"comments":["#And print response"],"line":19,"prefix":"And","index":4,"text":"match response == {\"name\": \"Mehedi\",\"job\": \"QA Engineer\",\"id\": \"#string\",\"createdAt\": \"#ignore\"}"}}],"executorName":"main","line":13,"name":"Test a sample POST API","description":"","durationMillis":720.549,"startTime":1671697498357,"failed":false,"refId":"[2:13]","endTime":1671697499078,"exampleIndex":-1}],"callDepth":0,"name":"Sample API Test","description":"","resultDate":"2022-12-22 02:24:59 PM","durationMillis":2078.2722,"passedCount":2}